<svg width="512" height="490" viewBox="0 0 512 490" fill="none" xmlns="http://www.w3.org/2000/svg">
<path fill-rule="evenodd" clip-rule="evenodd" d="M229.557 1.37485C174.074 10.7268 131.512 55.0689 122.056 113.371C121.205 118.615 120.589 129.164 120.587 138.53L120.583 154.659L117.231 160.225C104.199 181.867 115.867 211.241 140.083 217.754C142.283 218.346 146.619 219.097 149.719 219.423L155.355 220.016L157.116 224.709C161.623 236.724 169.148 249.086 177.703 258.534L182.583 263.922V283.332V302.742L176.333 303.282C172.896 303.579 165.358 304.056 159.583 304.342C147.999 304.915 132.511 307.467 119.829 310.893C113.461 312.613 111.004 313.8 109.079 316.088C105.552 320.279 105.715 325.187 109.506 328.978C113.145 332.616 115.471 332.668 128.422 329.394C141.541 326.077 156.392 324.105 170.999 323.74L182.916 323.442L184.213 329.8C186.414 340.589 193.434 353.514 202.094 362.719C217.263 378.845 234.117 386.269 255.583 386.281C268.465 386.289 275.797 384.505 288.583 378.255C296.648 374.312 299.45 372.236 307.135 364.506C313.519 358.084 317.249 353.338 319.792 348.401C323.757 340.704 327.583 329.848 327.583 326.295C327.583 325.043 327.92 323.823 328.333 323.583C328.745 323.343 336.958 323.501 346.583 323.934C388.476 325.817 416.016 337.171 442.144 363.329C458.951 380.154 469.996 398.937 479.092 426.159C483.562 439.536 489.548 463.237 489.571 467.651L489.583 469.901H467.583H445.583L445.527 460.151C445.454 447.659 444.222 443.957 439.339 441.571C436.188 440.032 435.04 439.925 432.092 440.898C426.347 442.794 425.583 444.817 425.583 458.124V469.901H259.083H92.5833V459.466C92.5833 447.659 91.8083 444.75 87.9983 442.253C83.6403 439.398 78.8123 439.961 75.4563 443.717C72.6453 446.863 72.5833 447.182 72.5833 458.417V469.901H47.0833C17.2763 469.901 20.1833 471.916 24.1753 454.021C29.9203 428.272 39.7793 402.98 50.9043 385.455C57.4493 375.146 58.0163 371.757 53.9943 366.978C51.8053 364.377 50.7063 363.901 46.8793 363.901C42.9773 363.901 41.9073 364.387 39.1243 367.426C37.3493 369.364 33.1023 375.831 29.6873 381.797C16.4333 404.953 5.8883 437.092 1.0403 469.105C-0.779703 481.116 -0.314703 485.05 3.2553 487.858L5.8533 489.901H255.583H505.313L507.911 487.858C511.668 484.902 511.983 480.932 509.618 466.368C502.856 424.73 488.88 388.979 469.659 364.155C441.023 327.171 400.046 306.15 353.083 304.354C345.383 304.06 336.72 303.58 333.833 303.288L328.583 302.757V283.34V263.922L333.463 258.534C342.018 249.086 349.543 236.724 354.05 224.709L355.811 220.016L361.447 219.423C373.786 218.124 382.025 214.343 389.177 206.697C398.326 196.916 401.715 183.087 398.268 169.6C397.397 166.191 396.198 155.467 395.604 145.77C393.591 112.887 388.827 92.1658 378.737 72.4008C374.261 63.6338 372.071 61.0788 355.582 45.4008C354.425 44.3008 349.684 39.2988 345.046 34.2858C328.814 16.7418 308.234 5.81485 283.198 1.44885C272.32 -0.448153 240.63 -0.492153 229.557 1.37485ZM288.083 22.8728C306.891 28.0118 324.289 38.9038 334.714 52.0658L337.657 55.7818L334.769 62.0919C328.789 75.1539 318.383 85.5858 305.937 90.9908C302.636 92.4248 297.404 93.3938 289.583 94.0188C273.904 95.2738 262.134 97.4788 249.083 101.609C230.563 107.47 217.231 114.54 194.923 130.33C183.93 138.111 174.242 140.565 152.333 141.118L140.583 141.415L140.587 132.908C140.612 79.6889 177.724 32.9538 228.691 21.9598C236.861 20.1968 240.816 19.9828 259.083 20.3098C276.78 20.6278 281.341 21.0308 288.083 22.8728ZM356.292 73.7208C365.224 85.8018 372.794 110.901 375.102 136.087L375.806 143.772L371.036 142.337C368.412 141.547 364.987 140.901 363.424 140.901C360.994 140.901 360.582 140.503 360.573 138.151C360.558 133.834 356.131 125.413 352.441 122.682C347.881 119.307 346.65 118.937 334.644 117.34C327.681 116.413 322.436 115.085 318.894 113.352C313.132 110.533 312.415 109.406 315.717 108.358C327.338 104.67 344.786 88.0808 351.171 74.6508C352.151 72.5888 353.235 70.9008 353.58 70.9008C353.925 70.9008 355.145 72.1698 356.292 73.7208ZM291.583 114.844C291.583 115.363 294.042 118.443 297.047 121.689C305.368 130.676 317.234 135.749 333.925 137.455L340.767 138.154L340.325 170.277C339.83 206.171 339.459 208.7 332.49 223.745C312.308 267.311 262.576 284.811 218.583 263.826C201.541 255.697 188.544 243.175 180.021 226.675C172.804 212.703 171.426 205.902 170.845 181.375L170.347 160.349L177.57 159.11C187.491 157.409 198.246 152.718 207.392 146.103C224.841 133.484 236.273 127.141 250.702 122.075C265.66 116.824 291.583 112.239 291.583 114.844ZM246.662 140.484C232.768 145.536 223.737 157.629 223.367 171.677C223.235 176.7 223.506 177.443 226.418 180.045C233.078 185.996 241.666 182.196 243.095 172.667C244.413 163.881 249.74 158.896 257.801 158.905C261.694 158.909 266.826 161.816 269.119 165.315C271.579 169.07 272.077 175.044 270.229 178.619C268.486 181.989 263.123 186.901 261.186 186.901C258.865 186.901 251.32 194.27 249.469 198.345C247.405 202.89 246.872 215.704 248.613 218.956C250.212 221.946 255.345 224.168 259.045 223.474C264.265 222.495 266.888 218.839 267.394 211.834L267.831 205.795L272.457 203.622C278.72 200.68 285.184 193.986 288.413 187.097C292.001 179.443 292.214 166.903 288.879 159.65C285.774 152.898 277.54 144.564 271.285 141.844C264.464 138.878 252.844 138.236 246.662 140.484ZM150.791 179.902L151.083 198.903L148.171 198.902C146.569 198.901 143.346 197.78 141.008 196.41C127.837 188.691 129.018 169.151 143.042 162.781C150.78 159.266 150.464 158.567 150.791 179.902ZM371.602 164.295C381.91 171.116 382.169 187.776 372.086 195.467C367.697 198.814 358.844 200.27 359.919 197.468C360.284 196.516 360.583 187.84 360.583 178.188V160.639L364.223 161.23C366.225 161.555 369.546 162.934 371.602 164.295ZM250.506 238.824C248.342 240.988 247.583 242.696 247.583 245.401C247.583 252.58 256.152 257.343 262.733 253.821C266.011 252.066 267.898 246.387 266.556 242.318C264.251 235.336 255.828 233.502 250.506 238.824ZM222.583 287.934C244.828 295.319 272.587 294.556 294.105 285.966C298.493 284.214 303.545 281.923 305.333 280.875L308.583 278.968V300.508C308.583 320.923 308.45 322.444 306.043 329.616C299.75 348.362 285.061 361.389 265.583 365.498C238.927 371.12 211.196 353.67 204.036 326.77C203.014 322.93 202.603 315.38 202.595 300.257L202.583 279.114L209.333 282.445C213.046 284.277 219.008 286.747 222.583 287.934ZM71.9663 334.484C65.9583 337.448 64.7283 345.2 69.5063 349.978C74.8943 355.365 83.5083 353.223 85.6863 345.953C87.1543 341.051 84.8703 336.337 80.0493 334.322C75.8843 332.582 75.8203 332.583 71.9663 334.484Z" fill="#182958"/>
</svg>
