<svg width="387" height="480" viewBox="0 0 387 480" fill="none" xmlns="http://www.w3.org/2000/svg">
<path fill-rule="evenodd" clip-rule="evenodd" d="M44.4112 0.930293C39.8741 2.76087 39.3874 4.87185 39.3874 22.7162V39.3874H22.4349H5.48235L2.74118 42.1286L0 44.8698V225.53C0 347.643 0.313223 406.774 0.965928 407.993C3.49985 412.729 1.71054 412.63 84.8874 412.63C158.227 412.63 162.34 412.717 161.903 414.271C159.751 421.91 157.55 445.758 157.55 461.442C157.55 473.556 157.69 474.582 159.66 476.848C162.437 480.044 167.885 480.969 171.188 478.805C172.688 477.822 175.147 473.904 177.649 468.514C190.913 439.936 208.812 426.004 239.735 420.19C252.652 417.761 267.621 416.383 281.104 416.382L291.654 416.381V426.739C291.654 436.44 291.798 437.242 293.918 439.362C296.662 442.106 300.145 443.096 303.295 442.028C306.387 440.979 383.723 372.689 385.428 369.501C387.062 366.449 386.489 362.272 384.037 359.359C382.753 357.832 371.781 347.806 359.654 337.077L337.606 317.57V190.451V63.3322L305.941 31.6656L274.274 0L160.348 0.0590811C97.6883 0.091904 45.5169 0.483903 44.4112 0.930293ZM261.645 44.4731V70.1912L264.073 73.0759L266.501 75.9615H292.676H318.851V188.142C318.851 297.8 318.811 300.294 317.086 299.037C316.116 298.329 312.663 295.489 309.413 292.726C303.954 288.082 303.225 287.739 299.787 288.201C292.903 289.124 292.188 290.725 291.654 306.44L291.186 320.243L276.544 321.357C243.539 323.868 222.025 330.044 204.358 342.079C200.534 344.683 195.718 348.527 193.655 350.619L189.904 354.425L124.023 354.456L58.1433 354.487V186.621V18.7559H159.894H261.645V44.4731ZM293.061 45.0142L305.225 57.2055H292.814H280.401V45.0142C280.401 38.309 280.513 32.8228 280.648 32.8228C280.785 32.8228 286.371 38.309 293.061 45.0142ZM39.3874 212.827V367.511L41.6503 370.142L43.9132 372.774L109.733 373.027C161.392 373.226 175.446 373.529 175.052 374.434C171.481 382.635 167.984 390.923 167.541 392.233C167.02 393.778 162.621 393.874 92.8708 393.874H18.7559V226.009V58.1433H29.0717H39.3874V212.827ZM113.937 101.67C110.747 104.861 110.093 108.326 111.949 112.218C114.903 118.411 112.671 118.239 186.726 117.952L253.36 117.693L256.095 114.631C259.835 110.445 259.833 105.89 256.09 102.148L253.349 99.4063H184.775H116.201L113.937 101.67ZM117.224 159.15C114.608 160.106 111.698 163.398 111.113 166.064C110.354 169.518 112.851 174.783 115.907 176.175C117.59 176.942 137.284 177.243 185.8 177.243H253.349L256.09 174.502C260.498 170.094 259.219 162.122 253.7 159.608C251.863 158.771 234.482 158.506 184.936 158.562C148.468 158.602 117.998 158.867 117.224 159.15ZM114.117 220.771C109.337 225.201 109.873 231.458 115.352 235.17L118.493 237.298L185.926 237.046L253.36 236.793L256.095 233.731C259.835 229.545 259.833 224.99 256.09 221.248L253.349 218.506H184.955H116.561L114.117 220.771ZM115.352 279.68C109.873 283.392 109.337 289.649 114.117 294.079L116.561 296.343H184.955H253.349L256.09 293.602C259.833 289.86 259.835 285.305 256.095 281.119L253.36 278.056L185.926 277.804L118.493 277.552L115.352 279.68ZM339.308 344.088C354.531 357.591 362.677 365.428 362.095 366.009C361.598 366.506 349.873 376.938 336.039 389.189L310.888 411.464L309.857 406.299C308.068 397.34 308.376 397.428 280.401 397.999C267.248 398.267 253.111 398.947 248.985 399.51C218.877 403.621 199.453 411.811 182.636 427.49C180.185 429.774 178.181 431.218 178.181 430.7C178.181 430.181 178.824 426.009 179.611 421.428C185.043 389.799 198.225 367.186 218.152 355.317C234.87 345.357 254.755 340.785 285.774 339.765C299.906 339.301 303.35 338.912 305.644 337.516C308.881 335.548 310.397 331.144 310.405 323.691L310.41 318.684L313.013 320.877C314.444 322.083 326.277 332.528 339.308 344.088Z" fill="#182958"></path>
</svg>
