<svg width="512" height="512" viewBox="0 0 512 512" fill="none" xmlns="http://www.w3.org/2000/svg">
<path fill-rule="evenodd" clip-rule="evenodd" d="M232.585 1.12109C200.097 4.24909 171.33 12.4891 141.981 27.0731C116.027 39.9701 96.9671 53.6621 75.5531 74.7911C54.9831 95.0871 40.1981 115.576 26.9981 142.075C-4.27393 204.855 -8.53193 276.095 15.0221 342.466C23.7601 367.091 41.2701 398.132 57.3471 417.501C81.3791 446.454 109.093 468.528 141.981 484.91C181.008 504.351 222.469 513.371 264.907 511.655C303.019 510.114 336.114 501.685 369.833 484.929C410.416 464.762 444.157 434.96 469.38 397.001C478.066 383.93 491.075 358.255 496.417 343.644C513.9 295.817 516.426 240.784 503.41 191.308C498.52 172.72 494.187 161.283 484.916 142.501C471.938 116.208 458.254 97.0691 437.117 75.6471C383.98 21.7941 307.456 -6.08891 232.585 1.12109ZM167.592 123.048C170.794 124.24 219.28 172.07 221.473 176.201C224.919 182.692 224.216 183.884 206.045 202.358C196.771 211.787 188.439 220.956 187.529 222.734C183.718 230.176 184.51 239.133 189.654 246.787C206.352 271.632 250.329 314.112 270.598 324.975C275.228 327.457 284.328 327.685 289.689 325.454C291.972 324.503 299.774 317.587 309.907 307.53C326.655 290.908 329.238 289.127 334.657 290.462C338.088 291.307 387.174 339.937 389.462 344.757C392.528 351.22 389.129 356.614 373.231 370.513C356.254 385.355 337.354 391.664 317.862 388.995C291.775 385.423 248.927 364.159 217.907 339.391C206.3 330.123 177.858 301.593 168.669 290.001C147.956 263.87 129.89 230.615 123.329 206.541C119.097 191.015 120.896 174.761 128.589 159.001C132.76 150.455 134.527 148.176 146.186 136.305C153.315 129.047 160.105 122.921 161.277 122.691C162.448 122.461 163.715 122.212 164.092 122.137C164.469 122.062 166.044 122.472 167.592 123.048Z" fill="#37AFB8"></path>
</svg>
