<svg width="512" height="511" viewBox="0 0 512 511" fill="none" xmlns="http://www.w3.org/2000/svg">
<path fill-rule="evenodd" clip-rule="evenodd" d="M231.387 0.620415C151.384 8.93442 81.2691 52.4464 38.6761 120.214C-21.7139 216.299 -10.4429 343.202 65.9071 426.798C108.161 473.063 161.005 500.722 224.376 509.743C236.207 511.427 275.524 511.406 287.876 509.709C345.753 501.756 397.587 476.103 437.009 435.901C449.947 422.707 452.703 419.552 461.285 408.114C486.858 374.027 503.601 332.473 510.062 287.058C511.735 275.292 511.735 235.818 510.061 224.058C505.751 193.783 497.915 167.988 485.343 142.689C472.022 115.885 458.353 96.7764 437.076 75.2154C397.607 35.2184 348.189 10.3724 291.376 1.96042C279.109 0.143415 243.605 -0.648585 231.387 0.620415ZM279.591 91.4594C336.929 102.597 378.278 149.683 382.423 208.558C385.023 245.491 356.376 300.356 294.446 377.058C281.744 392.79 256.809 421.558 255.876 421.558C254.943 421.558 230.008 392.79 217.306 377.058C184.084 335.912 161.42 302.348 146.404 272.058C129.363 237.683 125.96 218.504 131.856 190.058C142.165 140.317 181.206 101.671 231.376 91.5434C244.097 88.9754 266.603 88.9364 279.591 91.4594ZM243.988 167.139C218.633 173.958 202.946 200.211 209.407 225.016C216.097 250.701 242.311 266.545 267.334 260.027C293.019 253.337 308.863 227.123 302.345 202.1C299.017 189.325 288.748 176.242 277.822 170.858C267.381 165.713 254.538 164.301 243.988 167.139Z" fill="#37AFB8"></path>
</svg>
