<svg width="512" height="480" viewBox="0 0 512 480" fill="none" xmlns="http://www.w3.org/2000/svg">
<path fill-rule="evenodd" clip-rule="evenodd" d="M296.95 1.16438C287.565 5.32838 284.633 18.0334 291.243 25.8894C296.311 31.9124 294.754 31.7804 361.218 31.7994C429.792 31.8194 430.272 31.8604 444.5 38.9894C459.322 46.4154 471.627 61.0124 476.782 77.2824L479 84.2824V239.782V395.282L476.782 402.282C470.572 421.881 454.308 438.327 434.5 445.037C428.134 447.193 426.651 447.249 362.822 447.76C298.968 448.271 297.588 448.324 294.884 450.344C289.637 454.263 288 457.459 288 463.782C288 470.107 289.638 473.303 294.886 477.22C297.61 479.254 298.547 479.282 363.824 479.282C436.275 479.282 434.444 479.412 450.353 473.144C474.566 463.606 495.324 442.848 504.862 418.635C511.438 401.944 511 414.714 511 239.782C511 91.6904 510.884 80.8314 509.238 74.4194C504.565 56.2134 496.377 41.6344 483.536 28.6524C470.566 15.5394 457.085 7.68439 438.646 2.49639C431.225 0.408385 429.073 0.337384 365.5 0.0773844C312.159 -0.139616 299.434 0.0623842 296.95 1.16438ZM200.95 65.1894C196.854 66.9734 192.726 72.0634 191.928 76.3114C190.232 85.3574 187.02 81.6624 260.798 155.523L328.962 223.764L169.304 224.023C9.811 224.282 9.644 224.284 6.885 226.344C1.638 230.262 0 233.458 0 239.782C0 246.106 1.638 249.302 6.885 253.22C9.644 255.28 9.811 255.282 169.304 255.541L328.962 255.8L260.798 324.041C186.81 398.112 190.225 394.17 191.972 403.483C192.895 408.405 198.877 414.387 203.799 415.31C213.189 417.072 207.751 421.905 298.687 330.969C373.031 256.624 382.449 246.863 383.048 243.532C384.751 234.063 389.53 239.457 299.684 149.431C251.582 101.232 215.654 65.9954 213.782 65.1814C209.79 63.4454 204.946 63.4484 200.95 65.1894Z" fill="#182958"></path>
</svg>
